{
    "data": {
        "search": {
            "meta": {
                "page": 1,
                "totalPages": 2,
                "totalRecords": 12,
                "__typename": "SearchResultMeta"
            },
            "results": [
                {
                    "id": "ba24b12b-f53e-4849-ad02-ba51e23d1a6c",
                    "routingCode": "ba24b12b",
                    "name": "Chelsea - AFL Nines",
                    "type": "ASSOCIATION",
                    "logo": {
                        "sizes": [
                            {
                                "url": "https://res.cloudinary.com/playhq/image/upload/h_32,w_32/v1/production/afl/ba24b12b-f53e-4849-ad02-ba51e23d1a6c/1724370919530/logo",
                                "dimensions": {
                                    "width": 32,
                                    "height": 32,
                                    "__typename": "ImageDimension"
                                },
                                "__typename": "ImageSource"
                            },
                            {
                                "url": "https://res.cloudinary.com/playhq/image/upload/h_48,w_48/v1/production/afl/ba24b12b-f53e-4849-ad02-ba51e23d1a6c/1724370919530/logo",
                                "dimensions": {
                                    "width": 48,
                                    "height": 48,
                                    "__typename": "ImageDimension"
                                },
                                "__typename": "ImageSource"
                            },
                            {
                                "url": "https://res.cloudinary.com/playhq/image/upload/h_64,w_64/v1/production/afl/ba24b12b-f53e-4849-ad02-ba51e23d1a6c/1724370919530/logo",
                                "dimensions": {
                                    "width": 64,
                                    "height": 64,
                                    "__typename": "ImageDimension"
                                },
                                "__typename": "ImageSource"
                            },
                            {
                                "url": "https://res.cloudinary.com/playhq/image/upload/h_96,w_96/v1/production/afl/ba24b12b-f53e-4849-ad02-ba51e23d1a6c/1724370919530/logo",
                                "dimensions": {
                                    "width": 96,
                                    "height": 96,
                                    "__typename": "ImageDimension"
                                },
                                "__typename": "ImageSource"
                            },
                            {
                                "url": "https://res.cloudinary.com/playhq/image/upload/h_128,w_128/v1/production/afl/ba24b12b-f53e-4849-ad02-ba51e23d1a6c/1724370919530/logo",
                                "dimensions": {
                                    "width": 128,
                                    "height": 128,
                                    "__typename": "ImageDimension"
                                },
                                "__typename": "ImageSource"
                            },
                            {
                                "url": "https://res.cloudinary.com/playhq/image/upload/h_256,w_256/v1/production/afl/ba24b12b-f53e-4849-ad02-ba51e23d1a6c/1724370919530/logo",
                                "dimensions": {
                                    "width": 256,
                                    "height": 256,
                                    "__typename": "ImageDimension"
                                },
                                "__typename": "ImageSource"
                            }
                        ],
                        "__typename": "Image"
                    },
                    "tenant": {
                        "id": "51b03df9-f2ce-46ae-a881-cdcd62a94730",
                        "name": "AFL",
                        "logo": null,
                        "slug": "afl",
                        "__typename": "TenantOrganisation"
                    },
                    "__typename": "Organisation",
                    "__typename": "Organisation"
                },
                {
                    "id": "21825bf0-11be-4c9d-a498-5efb554aaa22",
                    "routingCode": "21825bf0",
                    "name": "Chelsea Auskick Centre",
                    "type": "CLUB",
                    "logo": {
                        "sizes": [
                            {
                                "url": "https://res.cloudinary.com/playhq/image/upload/h_32,w_32/v1/production/afl/21825bf0-11be-4c9d-a498-5efb554aaa22/1702598454561/logo",
                                "dimensions": {
                                    "width": 32,
                                    "height": 32,
                                    "__typename": "ImageDimension"
                                },
                                "__typename": "ImageSource"
                            },
                            {
                                "url": "https://res.cloudinary.com/playhq/image/upload/h_48,w_48/v1/production/afl/21825bf0-11be-4c9d-a498-5efb554aaa22/1702598454561/logo",
                                "dimensions": {
                                    "width": 48,
                                    "height": 48,
                                    "__typename": "ImageDimension"
                                },
                                "__typename": "ImageSource"
                            },
                            {
                                "url": "https://res.cloudinary.com/playhq/image/upload/h_64,w_64/v1/production/afl/21825bf0-11be-4c9d-a498-5efb554aaa22/1702598454561/logo",
                                "dimensions": {
                                    "width": 64,
                                    "height": 64,
                                    "__typename": "ImageDimension"
                                },
                                "__typename": "ImageSource"
                            },
                            {
                                "url": "https://res.cloudinary.com/playhq/image/upload/h_96,w_96/v1/production/afl/21825bf0-11be-4c9d-a498-5efb554aaa22/1702598454561/logo",
                                "dimensions": {
                                    "width": 96,
                                    "height": 96,
                                    "__typename": "ImageDimension"
                                },
                                "__typename": "ImageSource"
                            },
                            {
                                "url": "https://res.cloudinary.com/playhq/image/upload/h_128,w_128/v1/production/afl/21825bf0-11be-4c9d-a498-5efb554aaa22/1702598454561/logo",
                                "dimensions": {
                                    "width": 128,
                                    "height": 128,
                                    "__typename": "ImageDimension"
                                },
                                "__typename": "ImageSource"
                            },
                            {
                                "url": "https://res.cloudinary.com/playhq/image/upload/h_256,w_256/v1/production/afl/21825bf0-11be-4c9d-a498-5efb554aaa22/1702598454561/logo",
                                "dimensions": {
                                    "width": 256,
                                    "height": 256,
                                    "__typename": "ImageDimension"
                                },
                                "__typename": "ImageSource"
                            }
                        ],
                        "__typename": "Image"
                    },
                    "tenant": {
                        "id": "51b03df9-f2ce-46ae-a881-cdcd62a94730",
                        "name": "AFL",
                        "logo": null,
                        "slug": "afl",
                        "__typename": "TenantOrganisation"
                    },
                    "__typename": "Organisation",
                    "__typename": "Organisation"
                },
                {
                    "id": "c9ab89e9-2640-4c5d-adf6-efe352fd4bd7",
                    "routingCode": "c9ab89e9",
                    "name": "Chelsea Superkick Centre",
                    "type": "CLUB",
                    "logo": {
                        "sizes": [
                            {
                                "url": "https://res.cloudinary.com/playhq/image/upload/h_32,w_32/v1/production/afl/c9ab89e9-2640-4c5d-adf6-efe352fd4bd7/1701225114796/logo",
                                "dimensions": {
                                    "width": 32,
                                    "height": 32,
                                    "__typename": "ImageDimension"
                                },
                                "__typename": "ImageSource"
                            },
                            {
                                "url": "https://res.cloudinary.com/playhq/image/upload/h_48,w_48/v1/production/afl/c9ab89e9-2640-4c5d-adf6-efe352fd4bd7/1701225114796/logo",
                                "dimensions": {
                                    "width": 48,
                                    "height": 48,
                                    "__typename": "ImageDimension"
                                },
                                "__typename": "ImageSource"
                            },
                            {
                                "url": "https://res.cloudinary.com/playhq/image/upload/h_64,w_64/v1/production/afl/c9ab89e9-2640-4c5d-adf6-efe352fd4bd7/1701225114796/logo",
                                "dimensions": {
                                    "width": 64,
                                    "height": 64,
                                    "__typename": "ImageDimension"
                                },
                                "__typename": "ImageSource"
                            },
                            {
                                "url": "https://res.cloudinary.com/playhq/image/upload/h_96,w_96/v1/production/afl/c9ab89e9-2640-4c5d-adf6-efe352fd4bd7/1701225114796/logo",
                                "dimensions": {
                                    "width": 96,
                                    "height": 96,
                                    "__typename": "ImageDimension"
                                },
                                "__typename": "ImageSource"
                            },
                            {
                                "url": "https://res.cloudinary.com/playhq/image/upload/h_128,w_128/v1/production/afl/c9ab89e9-2640-4c5d-adf6-efe352fd4bd7/1701225114796/logo",
                                "dimensions": {
                                    "width": 128,
                                    "height": 128,
                                    "__typename": "ImageDimension"
                                },
                                "__typename": "ImageSource"
                            },
                            {
                                "url": "https://res.cloudinary.com/playhq/image/upload/h_256,w_256/v1/production/afl/c9ab89e9-2640-4c5d-adf6-efe352fd4bd7/1701225114796/logo",
                                "dimensions": {
                                    "width": 256,
                                    "height": 256,
                                    "__typename": "ImageDimension"
                                },
                                "__typename": "ImageSource"
                            }
                        ],
                        "__typename": "Image"
                    },
                    "tenant": {
                        "id": "51b03df9-f2ce-46ae-a881-cdcd62a94730",
                        "name": "AFL",
                        "logo": null,
                        "slug": "afl",
                        "__typename": "TenantOrganisation"
                    },
                    "__typename": "Organisation",
                    "__typename": "Organisation"
                },
                {
                    "id": "561d0651-570c-4757-ab7b-b1889f98e7a0",
                    "routingCode": "561d0651",
                    "name": "Chelsea FC Term 3 Auskick Centre",
                    "type": "CLUB",
                    "logo": {
                        "sizes": [
                            {
                                "url": "https://res.cloudinary.com/playhq/image/upload/h_32,w_32/v1/production/afl/561d0651-570c-4757-ab7b-b1889f98e7a0/1721798885225/logo",
                                "dimensions": {
                                    "width": 32,
                                    "height": 32,
                                    "__typename": "ImageDimension"
                                },
                                "__typename": "ImageSource"
                            },
                            {
                                "url": "https://res.cloudinary.com/playhq/image/upload/h_48,w_48/v1/production/afl/561d0651-570c-4757-ab7b-b1889f98e7a0/1721798885225/logo",
                                "dimensions": {
                                    "width": 48,
                                    "height": 48,
                                    "__typename": "ImageDimension"
                                },
                                "__typename": "ImageSource"
                            },
                            {
                                "url": "https://res.cloudinary.com/playhq/image/upload/h_64,w_64/v1/production/afl/561d0651-570c-4757-ab7b-b1889f98e7a0/1721798885225/logo",
                                "dimensions": {
                                    "width": 64,
                                    "height": 64,
                                    "__typename": "ImageDimension"
                                },
                                "__typename": "ImageSource"
                            },
                            {
                                "url": "https://res.cloudinary.com/playhq/image/upload/h_96,w_96/v1/production/afl/561d0651-570c-4757-ab7b-b1889f98e7a0/1721798885225/logo",
                                "dimensions": {
                                    "width": 96,
                                    "height": 96,
                                    "__typename": "ImageDimension"
                                },
                                "__typename": "ImageSource"
                            },
                            {
                                "url": "https://res.cloudinary.com/playhq/image/upload/h_128,w_128/v1/production/afl/561d0651-570c-4757-ab7b-b1889f98e7a0/1721798885225/logo",
                                "dimensions": {
                                    "width": 128,
                                    "height": 128,
                                    "__typename": "ImageDimension"
                                },
                                "__typename": "ImageSource"
                            },
                            {
                                "url": "https://res.cloudinary.com/playhq/image/upload/h_256,w_256/v1/production/afl/561d0651-570c-4757-ab7b-b1889f98e7a0/1721798885225/logo",
                                "dimensions": {
                                    "width": 256,
                                    "height": 256,
                                    "__typename": "ImageDimension"
                                },
                                "__typename": "ImageSource"
                            }
                        ],
                        "__typename": "Image"
                    },
                    "tenant": {
                        "id": "51b03df9-f2ce-46ae-a881-cdcd62a94730",
                        "name": "AFL",
                        "logo": null,
                        "slug": "afl",
                        "__typename": "TenantOrganisation"
                    },
                    "__typename": "Organisation",
                    "__typename": "Organisation"
                },
                {
                    "id": "14a21b89-f783-4df7-b1d5-af62d50de75a",
                    "routingCode": "14a21b89",
                    "name": "Chelsea Junior Football Club",
                    "type": "CLUB",
                    "logo": {
                        "sizes": [
                            {
                                "url": "https://res.cloudinary.com/playhq/image/upload/h_32,w_32/v1/production/afl/14a21b89-f783-4df7-b1d5-af62d50de75a/1733978341494/logo",
                                "dimensions": {
                                    "width": 32,
                                    "height": 32,
                                    "__typename": "ImageDimension"
                                },
                                "__typename": "ImageSource"
                            },
                            {
                                "url": "https://res.cloudinary.com/playhq/image/upload/h_48,w_48/v1/production/afl/14a21b89-f783-4df7-b1d5-af62d50de75a/1733978341494/logo",
                                "dimensions": {
                                    "width": 48,
                                    "height": 48,
                                    "__typename": "ImageDimension"
                                },
                                "__typename": "ImageSource"
                            },
                            {
                                "url": "https://res.cloudinary.com/playhq/image/upload/h_64,w_64/v1/production/afl/14a21b89-f783-4df7-b1d5-af62d50de75a/1733978341494/logo",
                                "dimensions": {
                                    "width": 64,
                                    "height": 64,
                                    "__typename": "ImageDimension"
                                },
                                "__typename": "ImageSource"
                            },
                            {
                                "url": "https://res.cloudinary.com/playhq/image/upload/h_96,w_96/v1/production/afl/14a21b89-f783-4df7-b1d5-af62d50de75a/1733978341494/logo",
                                "dimensions": {
                                    "width": 96,
                                    "height": 96,
                                    "__typename": "ImageDimension"
                                },
                                "__typename": "ImageSource"
                            },
                            {
                                "url": "https://res.cloudinary.com/playhq/image/upload/h_128,w_128/v1/production/afl/14a21b89-f783-4df7-b1d5-af62d50de75a/1733978341494/logo",
                                "dimensions": {
                                    "width": 128,
                                    "height": 128,
                                    "__typename": "ImageDimension"
                                },
                                "__typename": "ImageSource"
                            },
                            {
                                "url": "https://res.cloudinary.com/playhq/image/upload/h_256,w_256/v1/production/afl/14a21b89-f783-4df7-b1d5-af62d50de75a/1733978341494/logo",
                                "dimensions": {
                                    "width": 256,
                                    "height": 256,
                                    "__typename": "ImageDimension"
                                },
                                "__typename": "ImageSource"
                            }
                        ],
                        "__typename": "Image"
                    },
                    "tenant": {
                        "id": "51b03df9-f2ce-46ae-a881-cdcd62a94730",
                        "name": "AFL",
                        "logo": null,
                        "slug": "afl",
                        "__typename": "TenantOrganisation"
                    },
                    "__typename": "Organisation",
                    "__typename": "Organisation"
                },
                {
                    "id": "ddd793c3-2641-4e5e-b897-8400875326b9",
                    "routingCode": "ddd793c3",
                    "name": "Chelsea Heights Football Club (SFNL)",
                    "type": "CLUB",
                    "logo": {
                        "sizes": [
                            {
                                "url": "https://res.cloudinary.com/playhq/image/upload/h_32,w_32/v1/production/afl/ddd793c3-2641-4e5e-b897-8400875326b9/1698364405838/logo",
                                "dimensions": {
                                    "width": 32,
                                    "height": 32,
                                    "__typename": "ImageDimension"
                                },
                                "__typename": "ImageSource"
                            },
                            {
                                "url": "https://res.cloudinary.com/playhq/image/upload/h_48,w_48/v1/production/afl/ddd793c3-2641-4e5e-b897-8400875326b9/1698364405838/logo",
                                "dimensions": {
                                    "width": 48,
                                    "height": 48,
                                    "__typename": "ImageDimension"
                                },
                                "__typename": "ImageSource"
                            },
                            {
                                "url": "https://res.cloudinary.com/playhq/image/upload/h_64,w_64/v1/production/afl/ddd793c3-2641-4e5e-b897-8400875326b9/1698364405838/logo",
                                "dimensions": {
                                    "width": 64,
                                    "height": 64,
                                    "__typename": "ImageDimension"
                                },
                                "__typename": "ImageSource"
                            },
                            {
                                "url": "https://res.cloudinary.com/playhq/image/upload/h_96,w_96/v1/production/afl/ddd793c3-2641-4e5e-b897-8400875326b9/1698364405838/logo",
                                "dimensions": {
                                    "width": 96,
                                    "height": 96,
                                    "__typename": "ImageDimension"
                                },
                                "__typename": "ImageSource"
                            },
                            {
                                "url": "https://res.cloudinary.com/playhq/image/upload/h_128,w_128/v1/production/afl/ddd793c3-2641-4e5e-b897-8400875326b9/1698364405838/logo",
                                "dimensions": {
                                    "width": 128,
                                    "height": 128,
                                    "__typename": "ImageDimension"
                                },
                                "__typename": "ImageSource"
                            },
                            {
                                "url": "https://res.cloudinary.com/playhq/image/upload/h_256,w_256/v1/production/afl/ddd793c3-2641-4e5e-b897-8400875326b9/1698364405838/logo",
                                "dimensions": {
                                    "width": 256,
                                    "height": 256,
                                    "__typename": "ImageDimension"
                                },
                                "__typename": "ImageSource"
                            }
                        ],
                        "__typename": "Image"
                    },
                    "tenant": {
                        "id": "51b03df9-f2ce-46ae-a881-cdcd62a94730",
                        "name": "AFL",
                        "logo": null,
                        "slug": "afl",
                        "__typename": "TenantOrganisation"
                    },
                    "__typename": "Organisation",
                    "__typename": "Organisation"
                },
                {
                    "id": "f1b4e18c-fbb0-4908-be4c-bab2e6ce96f0",
                    "routingCode": "f1b4e18c",
                    "name": "Chelsea Football Netball Club (MPFNL)",
                    "type": "CLUB",
                    "logo": {
                        "sizes": [
                            {
                                "url": "https://res.cloudinary.com/playhq/image/upload/h_32,w_32/v1/production/afl/f1b4e18c-fbb0-4908-be4c-bab2e6ce96f0/1643054342294/logo",
                                "dimensions": {
                                    "width": 32,
                                    "height": 32,
                                    "__typename": "ImageDimension"
                                },
                                "__typename": "ImageSource"
                            },
                            {
                                "url": "https://res.cloudinary.com/playhq/image/upload/h_48,w_48/v1/production/afl/f1b4e18c-fbb0-4908-be4c-bab2e6ce96f0/1643054342294/logo",
                                "dimensions": {
                                    "width": 48,
                                    "height": 48,
                                    "__typename": "ImageDimension"
                                },
                                "__typename": "ImageSource"
                            },
                            {
                                "url": "https://res.cloudinary.com/playhq/image/upload/h_64,w_64/v1/production/afl/f1b4e18c-fbb0-4908-be4c-bab2e6ce96f0/1643054342294/logo",
                                "dimensions": {
                                    "width": 64,
                                    "height": 64,
                                    "__typename": "ImageDimension"
                                },
                                "__typename": "ImageSource"
                            },
                            {
                                "url": "https://res.cloudinary.com/playhq/image/upload/h_96,w_96/v1/production/afl/f1b4e18c-fbb0-4908-be4c-bab2e6ce96f0/1643054342294/logo",
                                "dimensions": {
                                    "width": 96,
                                    "height": 96,
                                    "__typename": "ImageDimension"
                                },
                                "__typename": "ImageSource"
                            },
                            {
                                "url": "https://res.cloudinary.com/playhq/image/upload/h_128,w_128/v1/production/afl/f1b4e18c-fbb0-4908-be4c-bab2e6ce96f0/1643054342294/logo",
                                "dimensions": {
                                    "width": 128,
                                    "height": 128,
                                    "__typename": "ImageDimension"
                                },
                                "__typename": "ImageSource"
                            },
                            {
                                "url": "https://res.cloudinary.com/playhq/image/upload/h_256,w_256/v1/production/afl/f1b4e18c-fbb0-4908-be4c-bab2e6ce96f0/1643054342294/logo",
                                "dimensions": {
                                    "width": 256,
                                    "height": 256,
                                    "__typename": "ImageDimension"
                                },
                                "__typename": "ImageSource"
                            }
                        ],
                        "__typename": "Image"
                    },
                    "tenant": {
                        "id": "51b03df9-f2ce-46ae-a881-cdcd62a94730",
                        "name": "AFL",
                        "logo": null,
                        "slug": "afl",
                        "__typename": "TenantOrganisation"
                    },
                    "__typename": "Organisation",
                    "__typename": "Organisation"
                },
                {
                    "id": "21e86bc5-57c8-434b-a08d-eb5e44603ac0",
                    "routingCode": "21e86bc5",
                    "name": "Chelsea Heights Football Club (MPJFL)",
                    "type": "CLUB",
                    "logo": null,
                    "tenant": {
                        "id": "51b03df9-f2ce-46ae-a881-cdcd62a94730",
                        "name": "AFL",
                        "logo": null,
                        "slug": "afl",
                        "__typename": "TenantOrganisation"
                    },
                    "__typename": "Organisation",
                    "__typename": "Organisation"
                }
            ],
            "__typename": "SearchView"
        }
    }
}